<?xml version="1.0" encoding="utf-8"?>
<!-- Generator: Adobe Illustrator 23.0.3, SVG Export Plug-In . SVG Version: 6.00 Build 0)  -->
<svg version="1.1" id="Capa_1" xmlns="http://www.w3.org/2000/svg" xmlns:xlink="http://www.w3.org/1999/xlink" x="0px" y="0px"
	 viewBox="0 0 97.76 97.76" style="enable-background:new 0 0 97.76 97.76;" xml:space="preserve">
<style type="text/css">
	.st0{fill:#FFFFFF;}
</style>
<path class="st0" d="M62.8,48.88l32.07-32.07c3.84-3.84,3.84-10.08,0-13.92c-3.84-3.84-10.08-3.84-13.92,0L48.88,34.96L16.81,2.88
	c-3.84-3.84-10.08-3.84-13.92,0c-3.84,3.84-3.84,10.08,0,13.92l32.07,32.07L2.88,80.95c-3.84,3.84-3.84,10.08,0,13.92
	c3.84,3.84,10.08,3.84,13.92,0L48.88,62.8l32.07,32.07c3.84,3.84,10.08,3.84,13.92,0c3.84-3.84,3.84-10.08,0-13.92L62.8,48.88z"/>
</svg>
