<?xml version="1.0" encoding="utf-8"?>
<!-- Generator: Adobe Illustrator 23.0.3, SVG Export Plug-In . SVG Version: 6.00 Build 0)  -->
<svg version="1.1" id="Capa_1" xmlns="http://www.w3.org/2000/svg" xmlns:xlink="http://www.w3.org/1999/xlink" x="0px" y="0px"
	 viewBox="0 0 100 100" style="enable-background:new 0 0 100 100;" xml:space="preserve">
<style type="text/css">
	.st0{fill:#FFFFFF;}
</style>
<g id="_x30_1">
</g>
<g id="_x30_2">
	<g>
		<path class="st0" d="M79.21,54.55c-1.56-1-4.53-1.37-7.77,0.86c-3.31,2.27-10.55,5.85-12.48,6.8c-0.26-0.73-0.63-1.35-1.1-1.82
			c-1.08-1.08-3.2-0.99-7.5-0.7c-2.22,0.15-4.73,0.32-6.33,0.12c-0.84-0.1-1.9-0.34-3.03-0.58c-4.27-0.93-9.59-2.08-12.75,1.08
			L18.23,70.32c-0.3,0.3-0.47,0.7-0.47,1.13c0,0.42,0.17,0.83,0.47,1.13l12.45,12.45c0.3,0.3,0.7,0.47,1.13,0.47
			c0.42,0,0.82-0.17,1.13-0.47l6.32-6.32c2.94,0.58,12.04,1.95,18.63-1.68C64,73.65,80.31,60.55,80.8,57.72
			C81,56.53,80.39,55.31,79.21,54.55z M56.12,64.64c-0.04,0.39-0.14,0.71-0.31,0.93c-1.42,0.58-9.69,1.29-18.67,1.6
			c-0.43,0.01-0.82,0.19-1.11,0.5s-0.44,0.72-0.43,1.14c0.01,0.43,0.2,0.83,0.51,1.13c0.31,0.29,0.72,0.43,1.14,0.42
			c18.93-0.64,20.28-1.99,20.73-2.43c0.59-0.59,1-1.38,1.2-2.29c3.5-1.67,10.71-5.3,14.06-7.6c2.16-1.49,3.61-1.08,4-0.92
			c0.11,0.04,0.19,0.09,0.26,0.13c-2.12,2.7-14.69,13.41-21.16,16.99c-6.56,3.63-16.79,1.29-17.22,1.19
			c-0.54-0.13-1.11,0.03-1.5,0.42l-5.81,5.81l-10.2-10.21l8.89-8.89c1.93-1.93,6.3-0.98,9.82-0.22c1.14,0.25,2.31,0.5,3.31,0.63
			c1.9,0.23,4.44,0.07,6.94-0.1c1.54-0.1,4.34-0.29,5.13-0.11c0.19,0.28,0.38,0.79,0.42,1.4c0,0.07,0,0.13,0.01,0.13
			C56.11,64.42,56.1,64.57,56.12,64.64z"/>
		<path class="st0" d="M48.84,51.27l0.02-0.37l0,0l0.01,0.38H49c12.6-0.66,21.81-4.64,27.4-11.82c8-10.3,5.49-23.12,5.38-23.66
			c-0.15-0.79-0.91-1.35-1.69-1.28c-21.19,1.8-28.66,16.62-31.28,26.17c-2.38-7.26-8.65-18.22-24.92-19.61
			c-0.79-0.07-1.54,0.49-1.7,1.27c-0.09,0.44-2.11,10.92,4.39,19.28C31.13,47.49,38.62,50.73,48.84,51.27z M31.81,31.04
			c-0.8,0.36-1.17,1.3-0.82,2.1c0.13,0.29,3.08,6.84,12.23,14.27c-6.3-1.18-11.04-3.77-14.1-7.7c-4.27-5.47-4.25-12.25-3.98-15.28
			C41.76,26.59,45.95,39.81,47,46.33C37.56,39.2,34.26,32.6,33.91,31.85C33.55,31.05,32.61,30.69,31.81,31.04z M70.88,28.96
			c0.17-0.39,0.18-0.83,0.03-1.23s-0.45-0.71-0.84-0.88c-0.21-0.09-0.43-0.13-0.64-0.13c-0.61,0-1.2,0.35-1.46,0.94
			c-0.18,0.38-4.38,9.28-17.16,18.72c1.12-8.36,6.1-25.91,28.06-28.54c0.39,3.81,0.54,12.56-4.99,19.67
			c-4.11,5.27-10.58,8.63-19.25,9.98C66.89,37.89,70.71,29.33,70.88,28.96z"/>
	</g>
</g>
<g id="_x30_3">
</g>
<g id="_x30_4">
</g>
<g id="_x30_5">
</g>
</svg>
