<?xml version="1.0" encoding="utf-8"?>
<!-- Generator: Adobe Illustrator 23.0.3, SVG Export Plug-In . SVG Version: 6.00 Build 0)  -->
<svg version="1.1" id="FONDO" xmlns="http://www.w3.org/2000/svg" xmlns:xlink="http://www.w3.org/1999/xlink" x="0px" y="0px"
	 viewBox="0 0 464.66 364.99" style="enable-background:new 0 0 464.66 364.99;" xml:space="preserve">
<style type="text/css">
	.st0{fill:#FFFFFF;}
</style>
<g>
	<path class="st0" d="M206.22,256.02c4.57-2.51,6.87-6.22,6.84-11.05c-0.05-8.33-6.87-13.71-17.4-13.71c-0.65,0-1.33,0.02-2,0.06
		c-8.58,0.5-15.28,5.14-19.91,13.8c-4.79,8.94-5.7,18.92-5.87,22.79c-0.13,2.87-0.06,5.72,0.19,8.49c0.46-0.56,0.95-1.11,1.48-1.65
		c4.66-4.8,12.01-7.82,20.52-11.33C195.4,261.21,200.9,258.93,206.22,256.02z"/>
	<path class="st0" d="M382.23,265.77c-0.1,0-0.2,0.02-0.3,0.06c-10.56,3.94-18.68,8.37-24.1,13.18c-5.14,4.54-7.74,9.3-7.74,14.14
		c0,6.87,6.72,12.46,14.98,12.46c4.42,0,9.52-1.81,15.58-5.54c1.58-0.97,2.38-1.81,2.38-3.74V266.6
		C383.03,266.26,382.72,265.77,382.23,265.77z"/>
	<path class="st0" d="M224.94,120.18c0-24.24-13.43-41.16-32.65-41.16c-19.23,0-32.65,16.83-32.65,40.93
		c0,24.1,13.43,40.94,32.65,40.94C211.51,160.89,224.94,144.15,224.94,120.18z"/>
	<path class="st0" d="M464.35,213.93c0.1-5.21,0.18-10.43,0.23-15.67s0.08-10.49,0.08-15.76c0-5.27-0.03-10.53-0.08-15.76
		s-0.13-10.46-0.23-15.67c-0.6-31.24-2.09-61.89-4.39-91.73c-0.07-0.86-0.15-1.71-0.24-2.54c-2.96-26-19.93-42.82-43.52-46.08
		C360.35,3.02,296.72,0,232.33,0c-40.25,0-80.19,1.18-118.13,3.94c-3.79,0.28-7.57,0.57-11.32,0.88
		c-18.76,1.54-36.97,3.49-54.43,5.9C24.11,14.07,6.81,31.89,4.69,59.33c-2.68,34.81-4.26,70.72-4.61,107.4
		C0.03,171.97,0,177.23,0,182.5c0,5.27,0.03,10.52,0.08,15.76c0.35,36.68,1.93,72.58,4.61,107.39
		c1.59,20.59,11.72,35.76,26.95,43.47c0.63,0.32,1.28,0.63,1.93,0.93c4.57,2.07,9.55,3.49,14.88,4.23
		c17.45,2.41,35.67,4.36,54.43,5.9c3.75,0.31,7.53,0.6,11.32,0.88c37.94,2.76,77.88,3.94,118.13,3.94
		c64.39,0,128.02-3.01,183.87-10.72c24.35-3.35,41.65-21.17,43.76-48.62C462.26,275.82,463.75,245.17,464.35,213.93z M420.16,313.86
		c-4.92,4.54-11.2,7.25-16.8,7.25c-0.18,0-0.36,0-0.53-0.01c-7.46-0.23-12.75-3.94-16.19-11.33c-0.09-0.21-0.17-0.26-0.18-0.27
		h-0.03c-0.19,0-0.76,0.11-2.09,1.15c-9.37,7.3-17.21,10.56-25.43,10.56c-0.87,0-1.76-0.04-2.64-0.12
		c-14.1-1.22-24.33-12.4-24.33-26.58c0-13.2,8.48-23.66,25.22-31.11c7.84-3.49,17.41-6.69,22.42-8.3c2.91-0.93,3.48-2.13,3.45-3.63
		c-0.15-6.12-1.47-10.48-4.07-13.34c-2.65-2.92-6.7-4.34-12.39-4.34c-8.09,0-16.1,3.97-23.57,8.27c-2.02,1.16-3.83,2.12-5.51,2.12
		c-0.56,0-1.09-0.11-1.58-0.32c-0.98-0.44-1.71-1.47-1.9-2.7c-0.25-1.65,0.42-3.33,1.87-4.59c12.44-10.92,22.95-15.58,35.15-15.58
		c8.87,0,16.43,2.63,21.86,7.6c6.16,5.64,9.29,13.86,9.29,24.44v38.29c0,11.08,2.74,16.7,8.14,16.7c1.74,0,4.72-1.06,6.64-2.36
		c0.95-0.65,1.93-0.99,2.82-0.99c0.85,0,1.6,0.3,2.16,0.86c0.69,0.69,1.06,1.71,1.04,2.86
		C422.94,310.26,421.92,312.25,420.16,313.86z M356.57,81.47c-1.89-0.19-3.19-1.37-3.39-3.06c-0.11-0.98,0.12-2.39,1.92-3.52
		l0.11-0.05c7.16-3.69,14.58-9.01,22.06-15.84c1.14-1.04,2.35-1.69,3.32-1.78c0.14-0.02,0.27-0.02,0.4-0.02c2.3,0,3.5,1.99,3.5,3.95
		l0,8.89c0,1.22,1,2.21,2.21,2.21h15.08c2.61,0,4.74,2,4.74,4.45v1.13c0,2.46-2.13,4.46-4.74,4.46h-15.07
		c-1.22,0-2.21,0.99-2.21,2.21v51.81c0,7.64,0.7,12.5,2.28,15.74c1.71,3.5,4.45,5.15,8.89,5.36c0.24,0,0.47,0.01,0.7,0.01
		c4.79,0,7.06-2.25,8.89-4.06l0.04-0.03c0.17-0.17,0.32-0.32,0.48-0.47l0.09-0.09c0.81-0.78,1.92-1.85,3.36-1.85
		c0.16,0,0.32,0.01,0.48,0.04c0.93,0.16,1.69,0.69,2.14,1.49c0.61,1.1,0.6,2.6-0.04,4.24c-2.05,5.2-9.1,13.15-20.12,13.72
		c-0.66,0.03-1.31,0.05-1.95,0.05c-7.75,0-13.86-2.42-18.17-7.2c-4.62-5.12-6.96-12.81-6.96-22.85V87.95
		C364.62,84.2,363.37,82.17,356.57,81.47z M297.05,201.77l-4.77-1.19c-1.89-0.51-3.11-1.99-3.11-3.76c0-1.3,0.68-2.51,1.84-3.24
		l0.1-0.06c7.68-3.96,13.73-8.38,21.01-14.24l0.14-0.1c0.66-0.41,1.44-0.63,2.26-0.63c2.27,0,4.11,1.74,4.11,3.88v121.54
		c0,7.36,4.86,8.1,8.75,8.69c0.46,0.07,0.9,0.14,1.29,0.22c2.03,0.39,4.01,2.19,3.78,4.49c-0.18,1.85-1.68,3.25-3.49,3.25h-0.07
		c-7.29-0.35-14-0.52-20.53-0.52c-6.07,0-12.01,0.15-18.13,0.44h-0.05c-1.83,0-3.27-1.29-3.49-3.13c-0.28-2.32,1.7-4.13,3.78-4.53
		c0.39-0.07,0.82-0.15,1.28-0.21c3.91-0.6,8.76-1.34,8.76-8.7l0.01-98C300.52,204.01,299.09,202.28,297.05,201.77z M315.02,167.66
		h-0.04c-1.83,0-3.3-1.32-3.49-3.15c-0.26-2.4,1.76-4.12,3.78-4.51c0.39-0.08,0.82-0.14,1.28-0.21c3.91-0.6,8.76-1.34,8.76-8.7
		v-45.66c0-8.41-1.55-14.37-4.75-18.2c-3.15-3.78-8.04-5.62-14.95-5.62c-6.78,0-13.33,2.06-20.62,6.47
		c-4.35,2.64-6.76,6.47-6.76,10.79v52.22c0,7.37,4.85,8.1,8.75,8.7c0.47,0.07,0.9,0.13,1.29,0.21c2.1,0.41,4.08,2.09,3.79,4.53
		c-0.23,1.86-1.69,3.21-3.49,3.21h-0.04c-7.2-0.34-14.31-0.52-21.11-0.52c-6.31,0-12.57,0.15-18.61,0.44h-0.05
		c-1.82,0-3.26-1.29-3.49-3.13c-0.31-2.44,1.67-4.13,3.78-4.54c0.39-0.08,0.82-0.14,1.28-0.21c3.91-0.6,8.76-1.34,8.76-8.7V98.5
		c0-3.75-1.24-5.78-8.04-6.48c-1.88-0.19-3.18-1.36-3.38-3.05c-0.12-0.98,0.12-2.39,1.92-3.52l0.1-0.06
		c8.03-4.13,15.45-8.92,22.05-14.24l0.14-0.1c0.66-0.41,1.44-0.63,2.26-0.63c2.27,0,4.11,1.74,4.11,3.88v7.47
		c0.18-0.09,0.4-0.2,0.68-0.37c14.45-8.77,23.32-11.88,33.9-11.88c8.82,0,16.76,2.63,22.36,7.42c6.08,5.19,9.3,12.67,9.3,21.6
		l-0.01,52.55c0,7.37,4.86,8.1,8.75,8.7c0.46,0.07,0.89,0.13,1.29,0.21c2.02,0.39,4.03,2.1,3.78,4.51
		c-0.19,1.85-1.68,3.24-3.48,3.24h-0.07c-7.19-0.34-14.28-0.52-21.09-0.52C327.32,167.22,321.06,167.38,315.02,167.66z M58.17,48.41
		c-0.62-0.11-1.27-0.22-1.92-0.35c-2.64-0.51-4.09-2.23-3.88-4.59c0.17-1.98,1.83-3.26,4.22-3.26h86.14c2.99,0,4.64,1.65,4.64,4.63
		v21.41c0,1.83-1.56,3.31-3.48,3.31c-1.96,0-3.78-1.17-4.52-2.91c-4.08-9.52-9.75-15.04-26.66-15.04H88.8c-1.22,0-2.21,1-2.21,2.21
		v36.07c0,1.22,0.99,2.21,2.21,2.21l25.12,0.01c6.67,0,7.93-5.63,8.68-8.99l0.03-0.11c0.03-0.15,0.06-0.29,0.1-0.42
		c0.42-1.8,2.06-3.63,4.41-3.63c0.16,0,0.33,0.01,0.5,0.03c2.24,0.26,3.49,1.87,3.36,4.31c-0.54,9.77-0.54,20.09,0,29.86
		c0.14,2.44-1.12,4.05-3.36,4.31c-0.17,0.02-0.33,0.03-0.5,0.03c-2.35,0-3.99-1.83-4.41-3.63c-0.03-0.13-0.06-0.27-0.1-0.41
		l-0.03-0.11c-0.75-3.36-2.01-9-8.68-9l-25.19,0c-1.22,0-2.21,0.99-2.21,2.21l0.05,45.14c0,6.32,3.6,6.93,8.58,7.78
		c0.61,0.1,1.25,0.21,1.87,0.33c2.08,0.4,4.08,2.11,3.89,4.59c-0.15,1.89-1.64,3.26-3.53,3.26h-0.05
		c-6.92-0.33-13.9-0.49-20.78-0.49c-6.87,0-13.8,0.17-20.57,0.49h-0.04c-1.86,0-3.37-1.35-3.58-3.22c-0.27-2.47,1.8-4.23,3.88-4.63
		c0.62-0.12,1.26-0.23,1.87-0.33c4.99-0.85,8.59-1.46,8.59-7.77V55.01C66.7,50.14,63.78,49.4,58.17,48.41z M66.65,193.6
		c7.25,0,14.36-0.17,21.13-0.49h0.05c1.91,0,3.41,1.37,3.57,3.25c0.21,2.48-1.79,4.19-3.88,4.6c-5.92,1.15-8.41,2.2-9.46,2.88
		c-0.9,0.59-0.59,1.88-0.16,2.86L112,284.52l31.79-77.21c0.63-1.47,0.04-2.71-0.78-3.24c-1.77-1.14-6.58-2.36-10.5-3.12
		c-2.62-0.51-4.26-2.37-4.07-4.64c0.15-1.8,1.79-3.21,3.74-3.21h0.04c6.89,0.33,13.25,0.49,19.46,0.49c6.22,0,12.64-0.16,19.63-0.49
		h0.04c2.07,0,3.49,1.24,3.69,3.25c0.23,2.25-1.38,4.09-4,4.6c-0.47,0.09-0.94,0.18-1.41,0.26l-0.03,0
		c-5.7,1.05-10.19,1.88-13.33,9.61l-44.14,108.4c-0.78,1.91-2.21,3.05-3.82,3.05c-1.61,0-3.06-1.14-3.87-3.05L57.99,209.64
		c-2.53-5.95-8.86-8-12.4-8.68c-2.15-0.42-4.17-2.14-3.88-4.63c0.22-1.87,1.71-3.21,3.55-3.21h0.04
		C52.21,193.44,59.4,193.6,66.65,193.6z M154.37,156.05c-9.76-9.27-15.13-22.08-15.13-36.09c0-14,5.37-26.82,15.13-36.09
		c9.75-9.25,23.21-14.34,37.93-14.34c14.72,0,28.18,5.09,37.92,14.34c9.76,9.27,15.13,22.09,15.13,36.09
		c0,14.01-5.37,26.82-15.13,36.09c-9.74,9.25-23.21,14.34-37.92,14.34C177.58,170.39,164.11,165.3,154.37,156.05z M247.93,201.77
		l-4.76-1.19c-1.9-0.51-3.11-1.99-3.11-3.76c0-1.3,0.69-2.51,1.84-3.24l0.11-0.06c7.68-3.96,13.73-8.38,21.01-14.24l0.14-0.1
		c0.66-0.41,1.44-0.63,2.26-0.63c2.27,0,4.11,1.74,4.11,3.88v121.54c0,7.36,4.85,8.1,8.75,8.69c0.46,0.07,0.9,0.14,1.29,0.22
		c2.04,0.39,4.01,2.19,3.79,4.49c-0.18,1.85-1.67,3.25-3.49,3.25h-0.06c-7.29-0.35-14-0.52-20.53-0.52c-6.07,0-12,0.15-18.14,0.44
		h-0.04c-1.83,0-3.27-1.29-3.49-3.13c-0.29-2.32,1.7-4.13,3.78-4.53c0.39-0.07,0.82-0.15,1.28-0.21c3.9-0.6,8.76-1.34,8.76-8.7v-98
		C251.4,204.01,249.98,202.28,247.93,201.77z M196.95,323.29c-0.45,0.01-0.92,0.02-1.38,0.02c-12.67,0-25.06-5.25-34-14.39
		c-4.56-4.66-8.09-10.16-10.49-16.34c-2.57-6.61-3.78-13.85-3.6-21.51c0.74-32.23,24.58-47.81,46.4-48.64
		c0.81-0.03,1.62-0.05,2.41-0.05c9.78,0,18.19,2.32,24.32,6.72c6.31,4.53,9.73,10.89,9.89,18.39c0.22,10.12-5.79,17.16-18.36,21.5
		c-1.46,0.51-3.22,1.09-5.08,1.71l-0.04,0c-10.51,3.48-26.4,8.75-31.29,13.87c-2.48,2.6-4.14,6.82-2.27,10.4
		c0.09,0.17,0.19,0.34,0.3,0.51l0.01,0.03c5.8,9.82,15.25,14.8,28.09,14.8c12.12,0,21.66-5.41,27.54-9.94
		c1.77-1.36,3.29-1.64,4.26-1.64c1.08,0,2.06,0.34,2.75,0.98c1.93,1.77,1.54,4.87-1,7.71c-3.87,4.35-9.03,8.06-14.93,10.73
		C213.51,321.29,205.6,323.03,196.95,323.29z"/>
</g>
</svg>
