<?xml version="1.0" encoding="utf-8"?>
<!-- Generator: Adobe Illustrator 23.0.3, SVG Export Plug-In . SVG Version: 6.00 Build 0)  -->
<svg version="1.1" id="Capa_1" xmlns="http://www.w3.org/2000/svg" xmlns:xlink="http://www.w3.org/1999/xlink" x="0px" y="0px"
	 viewBox="0 0 290 110" style="enable-background:new 0 0 290 110;" xml:space="preserve">
<style type="text/css">
	.st0{fill:#FFFFFF;}
</style>
<g>
	<path class="st0" d="M147.41,87.48c0,1.49,0.2,2.77,1.93,3.21c0.5,0.12,0.35,0.58,0.35,0.93c0,0.47-0.38,0.32-0.61,0.32
		c-4.64,0-9.28,0-13.89,0c-0.26,0-0.67,0.15-0.7-0.32c-0.03-0.41-0.06-0.73,0.44-0.96c1.2-0.58,1.37-1.37,0.53-2.42
		c-2.01-2.45-4.32-4.61-6.51-6.86c-5.34-5.55-10.74-11.03-16.11-16.55c-1.72-1.75-3.42-3.53-5.14-5.28
		c-0.18-0.18-0.29-0.41-0.58-0.41c-0.18,0.26-0.09,0.58-0.09,0.88c0,9.28,0,18.54-0.03,27.82c0,1.43,0.35,2.48,1.84,2.86
		c0.58,0.15,0.41,0.61,0.41,0.96c0,0.44-0.41,0.29-0.64,0.29c-4.26,0-8.52,0-12.81,0c-0.29,0-0.7,0.15-0.73-0.41
		c-0.03-0.44,0.03-0.76,0.53-0.9c1.28-0.38,1.72-1.31,1.72-2.6c0-13.51-0.03-27,0-40.52c0-1.31-0.38-2.31-1.72-2.69
		c-0.53-0.15-0.53-0.5-0.53-0.9c0-0.55,0.44-0.41,0.73-0.41c4.99,0,10.01,0,15,0c0.29,0,0.67-0.12,0.67,0.38
		c0,0.35,0.09,0.67-0.38,0.9c-1.31,0.73-1.52,1.66-0.53,2.83c1.17,1.37,2.45,2.66,3.74,3.94c7.53,7.79,15.06,15.59,22.59,23.35
		c0.23,0.23,0.44,0.53,0.64,0.79C137.54,75.69,147.41,87.48,147.41,87.48"/>
	<path class="st0" d="M234.51,43.49c6.8,0,13.63-0.03,20.43,0.03c1.43,0,2.54-0.32,2.95-1.87c0.15-0.53,0.55-0.38,0.9-0.38
		c0.5,0,0.38,0.41,0.38,0.67c0,3.71,0,7.44,0,11.15c0,0.26,0.15,0.67-0.35,0.7c-0.41,0.03-0.79,0.06-0.93-0.5
		c-0.38-1.37-1.4-1.81-2.74-1.81c-9.66,0.03-19.35,0-29.01,0c-0.7,0-0.88,0.23-0.88,0.9c0.03,3.24,0.03,6.51,0,9.75
		c0,0.61,0.15,0.85,0.82,0.85c6.28-0.03,12.52-0.03,18.8,0c1.14,0,1.96-0.44,2.34-1.55c0.18-0.5,0.41-0.79,0.99-0.67
		c0.64,0.12,0.41,0.61,0.41,0.96c0.03,3.47,0.03,6.95,0,10.42c0,0.29,0.23,0.79-0.38,0.88c-0.53,0.06-0.85-0.06-1.02-0.64
		c-0.38-1.11-1.17-1.61-2.39-1.61c-6.22,0.03-12.46,0-18.68,0c-0.61,0-0.85,0.15-0.85,0.82c0.03,3.88,0.03,7.74,0,11.62
		c0,0.58,0.12,0.82,0.76,0.82c10.07-0.03,20.14-0.03,30.21,0c1.2,0,2.1-0.44,2.48-1.63c0.15-0.53,0.44-0.67,0.93-0.61
		c0.61,0.06,0.41,0.53,0.41,0.85c0.03,3.62,0.03,7.24,0,10.86c0,0.29,0.23,0.73-0.35,0.79c-0.44,0.03-0.82,0.03-0.99-0.55
		c-0.38-1.26-1.31-1.69-2.6-1.69c-14.22,0.03-28.43,0-42.65,0c-0.53,0-1.17,0.15-1.02-0.79c0.06-0.38,0.35-0.47,0.64-0.55
		c1.17-0.41,1.63-1.28,1.63-2.48c0-13.57,0-27.15,0-40.72c0-1.26-0.47-2.16-1.69-2.54c-0.55-0.18-0.61-0.53-0.55-0.99
		c0.06-0.61,0.55-0.38,0.88-0.38C220.38,43.49,227.45,43.49,234.51,43.49"/>
	<path class="st0" d="M183.31,92.79c-7.33,0-13.51-1.61-19.38-4.44c-0.58-0.29-1.17-0.53-1.75-0.82c-0.7-0.35-1.37-0.38-1.98,0.15
		c-0.44,0.38-0.79,0.18-1.17-0.06c-0.5-0.32-0.09-0.67,0.03-0.96c1.52-3.47,3.06-6.95,4.61-10.42c0.12-0.26,0.15-0.67,0.58-0.53
		c0.32,0.12,0.73,0.18,0.73,0.7c0,1.78,1.11,2.86,2.42,3.77c3.36,2.25,7.15,3.33,11.09,3.97c3.77,0.64,7.5,0.55,11.18-0.76
		c1.75-0.61,3.24-1.58,4.32-3.15c1.78-2.63,0.93-5.31-2.1-6.28c-2.86-0.9-5.84-1.05-8.79-1.4c-4.14-0.5-8.32-0.67-12.38-1.72
		c-5.58-1.43-9.55-5.6-10.13-10.57c-0.88-7.53,2.71-13.31,9.87-15.97c4.73-1.75,9.63-1.93,14.62-1.55
		c4.93,0.38,9.49,2.04,14.01,3.91c0.7,0.29,1.43,0.53,2.13,0.85c0.9,0.38,1.75,0.5,2.6-0.2c0.38-0.32,0.73-0.12,1.08,0.12
		c0.47,0.32,0.06,0.61-0.06,0.85c-1.69,3.33-3.39,6.68-5.08,10.01c-0.12,0.23-0.12,0.73-0.55,0.55c-0.32-0.12-0.73-0.23-0.73-0.7
		c0-1.28-0.88-1.98-1.78-2.63c-3.62-2.6-7.68-4.03-12.11-4.47c-3.18-0.32-6.3-0.23-9.4,0.7c-1.66,0.5-3.09,1.34-4.09,2.8
		c-1.61,2.31-0.88,4.82,1.69,5.87c1.75,0.73,3.65,0.85,5.49,1.08c3.79,0.47,7.62,0.82,11.41,1.31c3.01,0.41,5.95,1.14,8.64,2.63
		c4.67,2.6,7.27,7.62,6.71,12.93c-0.58,5.34-3.39,9.17-8.2,11.5C192.33,92.06,187.51,92.73,183.31,92.79"/>
	<path class="st0" d="M60.25,79.48c-3.36,0-6.68,0-10.04,0c-0.5,0-0.88,0.06-1.11,0.58c-1.02,2.22-2.1,4.44-3.15,6.66
		c-0.18,0.38-0.32,0.79-0.44,1.2c-0.29,1.05,0.09,1.87,1.05,2.39c0.29,0.15,0.61,0.26,0.93,0.41c0.41,0.18,0.32,0.55,0.32,0.88
		c0,0.44-0.35,0.35-0.61,0.35c-4.93,0-9.9,0-14.83,0c-0.26,0-0.58,0.09-0.58-0.38c0-0.35-0.12-0.76,0.41-0.88
		c1.66-0.35,2.45-1.61,3.12-3.01c5.22-10.89,10.42-21.8,15.65-32.69c0.9-1.9,1.84-3.82,2.71-5.75c0.23-0.5,0.41-1.02,0.53-1.55
		c0.26-1.26-0.12-2.07-1.23-2.69c-0.15-0.09-0.26-0.15-0.41-0.2c-0.5-0.18-0.35-0.58-0.35-0.93c0.03-0.5,0.44-0.35,0.7-0.35
		c5.25,0,10.51,0,15.73,0c0.26,0,0.7-0.15,0.7,0.35c0,0.32,0.18,0.76-0.35,0.9c-1.93,0.64-2.07,2.13-1.2,3.97
		c1.17,2.42,2.36,4.85,3.56,7.27c5.02,10.13,10.04,20.29,15.06,30.42c0.38,0.73,0.76,1.46,1.2,2.16c0.61,0.99,1.46,1.75,2.63,2.04
		c0.5,0.12,0.64,0.38,0.61,0.85c-0.03,0.58-0.47,0.44-0.82,0.44c-5.46,0-10.92,0-16.4,0c-0.26,0-0.67,0.15-0.7-0.35
		c-0.03-0.41-0.03-0.79,0.5-0.9c1.78-0.38,2.22-1.81,1.43-3.53c-0.96-2.13-2.1-4.17-3.01-6.3c-0.47-1.11-1.08-1.4-2.22-1.37
		C66.55,79.54,63.4,79.48,60.25,79.48 M60.48,55.93c-0.32,0.2-0.38,0.5-0.5,0.73c-2.36,5.11-4.7,10.25-7.09,15.32
		c-0.38,0.82-0.15,0.88,0.58,0.88c4.55-0.03,9.14,0,13.69,0c1.02,0,1.02,0,0.61-0.93c-1.72-3.82-3.47-7.62-5.22-11.44
		C61.91,58.99,61.18,57.47,60.48,55.93"/>
	<path class="st0" d="M147.32,27.32c2.25-0.12,4.73,0.85,7.06,2.28c0.7,0.41,1.4,0.88,2.04,1.37c0.82,0.61,1.55,1.31,2.01,2.28
		c0.15,0.29,0.32,0.55,0.53,0.82c0.53,0.73,1.2,1.08,2.1,0.99c0.55-0.06,1.08-0.12,1.61-0.29c1.17-0.41,1.98-1.75,1.9-3.18
		c-0.15-2.19-0.7-4.32-1.28-6.42c-0.73-2.57-1.55-5.08-2.25-7.65c-0.82-2.95-0.99-5.93-0.06-8.9c0.2-0.7,0.38-1.46,0.79-2.07
		c0.85-1.31,1.87-2.48,3.36-3.18c3.15-1.49,6.48,0,8.14,2.1c0.38,0.47,0.32,0.67-0.23,0.93c-0.06,0.03-0.12,0.06-0.18,0.06
		c-0.85,0.06-0.96,0.64-0.9,1.31c0.03,0.29-0.03,0.61-0.03,0.9c0.03,0.32-0.09,0.41-0.41,0.41c-1.55,0-3.09,0-4.67,0.06
		c-0.47,0.03-0.79,0.2-1.02,0.55c-0.47,0.67-0.64,1.43-0.73,2.22c-0.32,2.63,0.12,5.2,0.88,7.71c1.08,3.65,2.13,7.3,2.86,11.03
		c0.32,1.58,0.41,3.15,0,4.73c-0.41,1.58-1.28,2.89-2.6,3.82c-2.25,1.63-4.7,2.95-7.41,3.62c-1.34,0.35-2.71,0.23-4.09,0.23
		c-0.41,0-0.47-0.29-0.38-0.61c0.12-0.44,0.29-0.85,0.47-1.28c0.03-0.09,0.06-0.18,0.12-0.26c1.2-2.22,0.29-4.12-1.17-5.75
		c-1.26-1.4-2.8-2.45-4.44-3.42c-1.43-0.85-2.95-0.85-4.52-0.73c-0.44,0.03-0.85,0.09-1.26,0.18c-1.26,0.23-2.34,0.82-3.27,1.72
		c-2.51,2.45-5.02,4.87-7.56,7.3c-1.55,1.49-3.06,3.01-4.64,4.47c-0.82,0.79-1.69,1.55-2.86,1.78c-0.58,0.12-1.2,0.06-1.72-0.2
		c-0.5-0.26-0.55-0.67-0.23-1.08c0.15-0.18,0.29-0.35,0.5-0.47c0.73-0.53,1.05-1.31,1.31-2.1c0.18-0.53,0.32-1.08,0.44-1.63
		c0.09-0.5,0.35-0.82,0.7-1.11c2.66-2.34,5.25-4.76,7.76-7.27c2.19-2.19,4.73-3.82,7.76-4.64
		C143.32,27.52,145.04,27.35,147.32,27.32"/>
	<path class="st0" d="M128.81,45.45c0.82-0.9,1.61-1.81,2.42-2.69c2.77-3.04,5.58-6.04,8.58-8.84c1.28-1.2,2.74-2.04,4.47-2.45
		c1.43-0.35,2.86-0.26,4.17,0.38c1.84,0.88,3.5,2.04,4.93,3.47c0.96,0.99,1.52,2.19,1.63,3.59c0.03,0.5-0.12,0.96-0.29,1.43
		c-0.7,2.01-1.78,3.77-3.68,4.9c-1.37,0.82-2.86,1.26-4.41,1.52c-1.72,0.29-3.42,0.2-5.05-0.38c-2.04-0.73-4.17-0.76-6.3-0.79
		c-2.16,0-4.29,0-6.45,0L128.81,45.45z"/>
	<path class="st0" d="M146.27,47.28c0.35-0.03,0.7-0.03,1.05-0.06c0.26-0.03,0.29,0.06,0.26,0.32c-0.32,1.87-0.64,3.77-0.82,5.63
		c-0.23,2.45-0.44,4.87-0.41,7.33c0,1.23,0.32,2.45,0.47,3.68c0.12,1.17,0.15,2.31,0.12,3.47c-0.12,4.35-0.29,8.7-0.29,13.08
		c0,2.57,0.35,5.11,0.99,7.59c0.26,0.99,0.88,1.23,1.78,0.82c1.26-0.55,2.6-0.53,3.94-0.47c0.2,0,0.38,0.12,0.53,0.23
		c0.32,0.23,0.35,0.41,0.03,0.61c-0.41,0.29-0.88,0.44-1.37,0.47c-0.29,0.03-0.58,0.03-0.88,0.09c-0.32,0.06-0.35,0.23-0.12,0.44
		c0.44,0.38,0.96,0.5,1.52,0.55c0.73,0.06,1.23,0.38,1.4,1.14c0.18,0.7-0.09,1.05-0.79,1.08c-0.67,0.03-1.28-0.2-1.93-0.32
		c-0.29-0.06-0.58-0.12-0.79,0.18c-0.2,0.29-0.09,0.55,0.12,0.79c0.18,0.23,0.12,0.47-0.03,0.67c-0.41,0.58-1.11,0.7-1.69,0.32
		c-0.32-0.2-0.55-0.47-0.79-0.76c-0.32-0.38-0.64-0.79-0.9-1.2c-0.47-0.7-1.02-1.26-1.9-1.46c-0.44-0.09-0.61-0.44-0.58-0.88
		c0.06-0.53,0.06-1.05,0.18-1.55c0.26-1.05,0.09-2.1-0.35-3.04c-0.44-0.88-0.5-1.72-0.32-2.66c0.15-0.76,0.15-1.52,0.15-2.28
		c0.06-2.63,0.15-5.22,0.09-7.85c0-0.7-0.15-1.37-0.38-2.01c-0.41-1.08-0.38-2.19-0.26-3.3c0.06-0.55,0.06-1.11,0.06-1.63
		c0-0.29-0.06-0.53-0.38-0.64c-0.32-0.12-0.44-0.38-0.32-0.7c0.55-1.75,0.5-3.59,0.61-5.37c0.12-1.9,0.32-3.77,0.58-5.63
		c0.2-1.37,0.18-2.74,0.15-4.12c0-0.32-0.15-0.61-0.38-0.88c-0.29-0.32-0.47-0.7-0.61-1.11c-0.12-0.35-0.03-0.55,0.38-0.55
		C144.99,47.37,145.63,47.31,146.27,47.28L146.27,47.28"/>
	<path class="st0" d="M141.75,47.14c0.29,0.03,0.82,0.06,1.34,0.2c0.23,0.06,0.38,0.18,0.41,0.41c0.03,0.26-0.09,0.47-0.29,0.55
		c-0.38,0.18-0.76,0.38-1.17,0.53c-3.77,1.46-7.53,2.92-11.3,4.38c-0.23,0.09-0.44,0.18-0.64,0.35c-0.35,0.29-0.38,0.41,0.03,0.67
		c0.79,0.47,1.66,0.7,2.54,0.82c1.02,0.12,1.96,0.35,2.83,0.9c0.5,0.29,1.14,0.29,1.72,0.38c2.28,0.32,4.26,1.4,6.22,2.48
		c0.12,0.06,0.18,0.15,0.2,0.29c0.03,0.32,0.06,0.67,0.12,0.99c0.06,0.35-0.12,0.38-0.38,0.35c-0.47-0.06-0.88-0.18-1.31-0.32
		c-4.47-1.43-8.9-2.95-13.37-4.47c-0.88-0.29-1.81-0.44-2.69-0.85c-1.28-0.64-1.08-2.01-0.06-2.63c0.73-0.44,1.58-0.64,2.39-0.85
		c1.05-0.26,1.96-0.76,2.77-1.43c0.2-0.18,0.44-0.29,0.67-0.35c1.46-0.38,2.98-0.64,4.47-0.88c1.28-0.2,2.54-0.55,3.71-1.17
		C140.46,47.28,140.96,47.08,141.75,47.14"/>
	<path class="st0" d="M155.58,65.91c0,0.32,0,0.64,0,0.96c0.06,1.17-0.44,2.13-1.02,3.06c-0.18,0.29-0.44,0.29-0.73,0.23
		c-0.29-0.03-0.38-0.23-0.41-0.47c-0.12-0.73-0.03-1.46-0.03-2.19c0-0.41-0.06-0.73-0.41-1.02c-0.53-0.44-0.82-1.02-0.9-1.69
		c-0.12-0.96-0.79-1.43-1.58-1.63c-1.26-0.35-2.25-1.02-3.24-1.78c-0.23-0.18-0.44-1.17-0.29-1.4c0.09-0.15,0.2-0.03,0.32,0
		c0.93,0.29,1.84,0.73,2.66,1.31c0.55,0.41,1.14,0.85,1.84,0.99c0.58,0.12,1.2,0.12,1.81,0.2c0.55,0.06,1.02,0.29,1.43,0.67
		c0.35,0.32,0.55,0.7,0.58,1.2C155.61,64.86,155.64,65.38,155.58,65.91"/>
	<path class="st0" d="M172.66,8.26c0-1.69,0.29-1.52,1.37-1.4c1.55,0.2,2.86,0.88,3.97,1.96c0.67,0.67,0.7,1.49,0.58,2.34
		c-0.23,1.55-0.82,2.98-1.46,4.38c-0.06,0.15-0.12,0.32-0.29,0.32c-0.2,0.03-0.23-0.2-0.32-0.32c-0.53-0.67-0.44-1.49-0.55-2.28
		c-0.2-1.72-0.9-3.09-2.48-3.97c-0.06-0.03-0.15-0.09-0.2-0.12C172.66,9.1,172.57,8.67,172.66,8.26"/>
	<path class="st0" d="M90.17,105.23c0-1.75,0-3.53,0-5.28c0-0.2-0.09-0.53,0.15-0.61c0.29-0.12,0.7-0.2,0.7,0.38
		c0,2.34,0.03,4.7-0.03,7.03c0,0.76-0.58,0.44-0.93,0.26c-0.35-0.18-0.38-0.61-0.58-0.9c-1.08-1.66-2.22-3.33-3.3-4.99
		c-0.32,0.12-0.15,0.35-0.15,0.5c-0.03,1.63-0.03,3.27-0.03,4.9c0,0.29,0.06,0.64-0.44,0.64c-0.44,0-0.41-0.29-0.41-0.58
		c0-2.28,0-4.58,0-6.86c0-0.29,0.12-0.44,0.35-0.55c0.29-0.15,0.44,0.15,0.53,0.29c0.61,0.85,1.2,1.72,1.75,2.57
		c0.73,1.08,1.46,2.19,2.19,3.27C90.05,105.28,90.11,105.26,90.17,105.23"/>
	<path class="st0" d="M230.66,99.24c0.55,0.03,1.14,0,1.69,0.12c1.08,0.18,1.63,0.82,1.78,1.84c0.12,0.93-0.26,1.81-1.2,2.22
		c-0.5,0.2-0.38,0.41-0.2,0.73c0.44,0.79,0.85,1.58,1.26,2.39c0.09,0.18,0.32,0.35,0.15,0.53c-0.18,0.2-0.5,0.12-0.7,0.06
		c-0.26-0.09-0.5-0.32-0.55-0.58c-0.15-0.79-0.64-1.43-0.99-2.13c-0.18-0.35-0.26-0.76-0.85-0.76c-1.4,0-1.4-0.03-1.4,1.34
		c0,0.5,0,1.02,0,1.52c0,0.29,0.12,0.64-0.41,0.64c-0.5,0-0.44-0.32-0.44-0.61c0-1.55,0-3.09,0-4.64c0-0.26,0.06-0.55-0.09-0.82
		c-0.35-0.58,0.15-1.14,0.2-1.69c0.03-0.23,0.7-0.06,1.11-0.12C230.22,99.27,230.45,99.27,230.66,99.24
		C230.66,99.27,230.66,99.27,230.66,99.24 M231.01,100.09L231.01,100.09c-0.18-0.03-0.35,0-0.5-0.03c-0.73-0.12-0.93,0.2-0.85,0.88
		c0.06,0.5,0.03,1.02,0,1.52c0,0.29,0.03,0.5,0.41,0.5c0.73-0.03,1.46,0.06,2.19-0.09c0.76-0.18,1.11-0.64,1.08-1.37
		c-0.03-0.76-0.41-1.28-1.23-1.37C231.74,100.06,231.36,100.09,231.01,100.09"/>
	<path class="st0" d="M145.95,107.07c-0.73,0.26-1.08-0.06-1.31-0.61c-0.38-0.82-0.82-1.61-1.23-2.42
		c-0.18-0.35-1.72-0.58-1.96-0.32c-0.09,0.12-0.09,0.32-0.09,0.47c0,0.82-0.03,1.63,0,2.45c0,0.35-0.09,0.5-0.47,0.5
		c-0.41,0-0.38-0.26-0.38-0.5c0-2.28,0-4.55,0-6.86c0-0.41,0.12-0.55,0.53-0.53c0.82,0.03,1.63,0,2.45,0.03
		c1.2,0.03,2.04,0.61,2.28,1.55c0.29,1.14-0.06,2.01-1.26,2.63c-0.44,0.23-0.23,0.41-0.09,0.64
		C144.93,105.08,145.42,106.04,145.95,107.07 M141.37,101.49c0,0.35,0,0.67,0,1.02c0,0.26,0.06,0.44,0.35,0.44
		c0.76-0.03,1.52,0.09,2.28-0.12c0.76-0.2,1.02-0.73,0.96-1.46c-0.03-0.73-0.44-1.14-1.14-1.26c-0.32-0.06-0.67-0.03-1.02-0.03
		C141.37,100.06,141.37,100.06,141.37,101.49"/>
	<path class="st0" d="M191.69,103.01c-0.09-0.99,0.15-2.25-0.12-3.47c-0.06-0.26,0.12-0.47,0.38-0.38c0.79,0.23,1.55,0.09,2.34,0.09
		c1.81,0.06,2.74,0.93,2.83,2.74c0.03,0.88,0.03,1.75-0.03,2.63c-0.12,1.55-0.93,2.36-2.45,2.48c-0.93,0.06-2.07,0.35-2.71-0.09
		c-0.67-0.44-0.15-1.66-0.23-2.54C191.66,104.09,191.69,103.65,191.69,103.01 M192.56,103.15v1.43c0,1.87,0,1.87,1.87,1.78
		c1.11-0.06,1.72-0.61,1.84-1.69c0.06-0.53,0.06-1.08,0.06-1.61c0-2.66-0.61-3.21-3.27-3.01c-0.35,0.03-0.5,0.12-0.5,0.5
		C192.56,101.4,192.56,102.28,192.56,103.15"/>
	<path class="st0" d="M101.43,103.21c-0.03,0.73,0.06,1.46-0.15,2.19c-0.29,0.93-0.9,1.49-1.84,1.66c-0.99,0.18-2.01,0.06-3.04,0.09
		c-0.44,0-0.38-0.29-0.38-0.58c0-2.22,0.03-4.47-0.03-6.68c0-0.64,0.44-0.82,0.82-0.76c0.82,0.18,1.61,0.06,2.42,0.18
		c1.37,0.23,2.1,1.05,2.22,2.45C101.46,102.28,101.43,102.75,101.43,103.21 M96.85,103.15c0,0.9,0,1.81,0,2.69
		c0,0.32,0.06,0.5,0.44,0.53c2.63,0.23,3.33-0.38,3.3-2.98c0-0.12,0-0.23,0-0.35c0-2.66-0.64-3.21-3.27-3.01
		c-0.38,0.03-0.47,0.15-0.47,0.5C96.88,101.43,96.85,102.31,96.85,103.15"/>
	<path class="st0" d="M117.75,105.26c0-1.63,0-3.24,0-4.87c0-0.23,0-0.44,0-0.67c0-0.32,0.09-0.47,0.44-0.47
		c0.29,0,0.41,0.15,0.41,0.41c0,2.36,0,4.73,0,7.09c0,0.18-0.03,0.32-0.26,0.35c-0.38,0.06-0.61-0.09-0.82-0.44
		c-1.05-1.63-2.13-3.24-3.21-4.87c-0.18-0.26-0.35-0.5-0.67-0.99c0,1.49,0,2.74,0,3.97c0,0.61,0,1.23,0,1.87
		c0,0.29-0.06,0.47-0.41,0.47c-0.32,0-0.44-0.15-0.44-0.47c0-2.31,0-4.61,0-6.95c0-0.2-0.06-0.47,0.29-0.5
		c0.35-0.03,0.58,0.06,0.76,0.38c0.88,1.34,1.75,2.69,2.66,4.03c0.38,0.55,0.73,1.11,1.11,1.63
		C117.66,105.28,117.72,105.28,117.75,105.26"/>
	<path class="st0" d="M77.7,103.24c0.06-0.61,0.06-1.23,0.15-1.81c0.18-1.34,1.26-2.22,2.69-2.22c1.4,0,2.48,0.88,2.66,2.22
		c0.15,1.17,0.15,2.36,0,3.53c-0.18,1.31-1.28,2.22-2.66,2.22c-1.34,0-2.45-0.88-2.63-2.13C77.76,104.47,77.73,103.85,77.7,103.24
		 M82.43,103.24c-0.06-0.58-0.06-1.11-0.15-1.63c-0.15-0.99-0.88-1.63-1.84-1.63c-0.9,0-1.63,0.64-1.78,1.58
		c-0.18,1.11-0.18,2.25,0,3.36c0.15,0.93,0.9,1.55,1.81,1.55c0.9,0,1.63-0.61,1.78-1.49C82.37,104.38,82.4,103.8,82.43,103.24"/>
	<path class="st0" d="M49.24,103.1c-0.09,1.37,0.12,2.63-1.02,3.53c-0.79,0.64-1.66,0.7-2.6,0.47c-0.93-0.26-1.61-0.85-1.81-1.84
		c-0.26-1.37-0.23-2.74,0-4.12c0.2-1.14,1.34-1.9,2.69-1.87c1.28,0.03,2.36,0.82,2.57,2.01C49.18,101.93,49.18,102.6,49.24,103.1
		 M44.54,103.21c0,0.61-0.03,1.23,0.12,1.84c0.2,0.85,0.9,1.4,1.78,1.4c0.9,0,1.66-0.58,1.81-1.46c0.2-1.17,0.18-2.36,0-3.53
		c-0.15-0.88-0.9-1.49-1.78-1.49c-0.88,0-1.61,0.61-1.81,1.46C44.51,102.02,44.54,102.6,44.54,103.21"/>
	<path class="st0" d="M199.13,103.15c0-1.08,0.03-2.13,0-3.21c0-0.5,0.09-0.7,0.64-0.7c1.23,0.03,2.48,0.03,3.71,0
		c0.38,0,0.64,0.15,0.67,0.44c0.03,0.35-0.35,0.35-0.64,0.35c-0.96,0-1.93,0.03-2.89,0c-0.5-0.03-0.67,0.09-0.67,0.64
		c0,2.1-0.03,2.1,2.07,2.1c0.32,0,0.61,0,0.93,0c0.23,0,0.44-0.03,0.44,0.32c0,0.32-0.12,0.44-0.44,0.44
		c-0.79-0.03-1.58,0.03-2.36,0c-0.47-0.03-0.61,0.09-0.64,0.58c-0.06,2.22-0.06,2.22,2.19,2.22c0.5,0,1.02,0,1.52,0
		c0.26,0,0.35,0.12,0.35,0.35c0,0.23-0.03,0.41-0.29,0.41c-1.43,0-2.89,0-4.32,0c-0.41,0-0.26-0.38-0.26-0.58
		C199.13,105.43,199.13,104.29,199.13,103.15"/>
	<path class="st0" d="M236.06,103.15c0-1.08,0.03-2.13,0-3.21c-0.03-0.5,0.09-0.7,0.64-0.67c1.2,0.03,2.42,0,3.65,0.03
		c0.29,0,0.64-0.12,0.61,0.41c-0.03,0.47-0.35,0.35-0.61,0.35c-0.96,0-1.93,0.03-2.86,0c-0.44-0.03-0.55,0.12-0.55,0.55
		c-0.06,2.19-0.09,2.19,2.07,2.19c0.32,0,0.61,0,0.93,0c0.23,0,0.44-0.03,0.44,0.32c0,0.32-0.12,0.44-0.44,0.44
		c-0.82-0.03-1.63,0-2.45-0.03c-0.38,0-0.53,0.09-0.55,0.53c-0.12,2.31-0.15,2.31,2.19,2.31c0.47,0,0.96,0,1.43,0
		c0.26,0,0.44,0.06,0.44,0.38c0,0.29-0.12,0.41-0.41,0.41c-1.37,0-2.77,0-4.14,0c-0.47,0-0.35-0.35-0.35-0.61
		C236.03,105.43,236.06,104.29,236.06,103.15"/>
	<path class="st0" d="M181.06,106.72c0.12,0.29,0.09,0.41-0.03,0.44c-0.23,0.03-0.53,0.12-0.7-0.12c-0.09-0.12-0.18-0.29-0.2-0.47
		c-0.18-1.02-0.76-1.4-1.78-1.2c-0.2,0.03-0.44,0-0.67,0c-1.37,0-1.4,0-1.84,1.28c-0.15,0.44-0.41,0.64-0.79,0.5
		c-0.47-0.18-0.09-0.53,0-0.76c0.79-2.19,1.61-4.38,2.39-6.54c0.09-0.26,0.12-0.53,0.53-0.55c0.44-0.03,0.5,0.29,0.58,0.58
		c0.82,2.22,1.63,4.41,2.45,6.63C181.03,106.6,181.09,106.74,181.06,106.72 M178,100.53c-0.5,1.4-0.9,2.57-1.34,3.71
		c-0.12,0.29-0.03,0.41,0.29,0.41c0.64,0,1.28-0.03,1.96,0c0.5,0.03,0.5-0.2,0.35-0.55C178.87,102.98,178.49,101.87,178,100.53"/>
	<path class="st0" d="M255.18,103.18c0-1.14,0-2.25,0-3.39c0-0.41,0.12-0.53,0.53-0.53c1.26,0.03,2.54,0,3.79,0
		c0.26,0,0.53,0.03,0.55,0.35c0.03,0.38-0.26,0.44-0.55,0.44c-0.93,0-1.87,0.03-2.8-0.03c-0.58-0.03-0.7,0.18-0.7,0.7
		c0,2.04-0.03,2.04,2.04,2.04c0.35,0,0.67,0.03,1.02,0c0.29-0.03,0.38,0.09,0.38,0.38s-0.12,0.38-0.41,0.38
		c-0.82-0.03-1.63,0-2.45-0.03c-0.44-0.03-0.55,0.12-0.58,0.58c-0.09,2.25-0.09,2.25,2.16,2.25c0.47,0,0.96,0,1.43,0
		c0.23,0,0.44,0,0.44,0.35c0,0.26-0.06,0.44-0.38,0.44c-1.37,0-2.77,0-4.14,0c-0.47,0-0.35-0.32-0.35-0.58
		C255.18,105.43,255.18,104.32,255.18,103.18"/>
	<path class="st0" d="M103.45,103.18c0-1.14,0-2.25,0-3.39c0-0.38,0.09-0.55,0.53-0.55c1.28,0.03,2.6,0,3.88,0
		c0.29,0,0.5,0.06,0.5,0.41c0,0.38-0.23,0.38-0.5,0.38c-0.99,0-1.98,0.03-2.95,0c-0.41,0-0.58,0.06-0.58,0.53
		c-0.06,2.22-0.09,2.22,2.13,2.22c0.29,0,0.55,0,0.85,0c0.29-0.03,0.47,0.03,0.47,0.41c0,0.41-0.26,0.35-0.5,0.35
		c-0.79,0-1.58,0.03-2.36,0c-0.44-0.03-0.55,0.15-0.58,0.58c-0.06,2.25-0.09,2.25,2.16,2.25c0.5,0,1.02,0,1.52,0
		c0.23,0,0.35,0.06,0.35,0.35c0,0.26-0.06,0.44-0.35,0.44c-1.37,0-2.77,0-4.14,0c-0.47,0-0.38-0.32-0.38-0.58
		C103.45,105.46,103.45,104.32,103.45,103.18"/>
	<path class="st0" d="M60.8,107.15c-0.58,0.03-0.44-0.26-0.32-0.55c0.53-1.46,1.11-2.92,1.61-4.38c0.26-0.76,0.47-1.55,0.73-2.34
		c0.09-0.32,0.18-0.61,0.61-0.61c0.41,0,0.53,0.23,0.61,0.53c0.82,2.28,1.66,4.52,2.48,6.8c0.06,0.18,0.26,0.38,0,0.5
		c-0.2,0.09-0.53,0.15-0.7-0.06c-0.12-0.18-0.35-0.32-0.35-0.64c0-0.88-0.44-1.2-1.28-1.05c-0.23,0.03-0.47,0.03-0.67,0
		c-1.17-0.15-2.1,0-2.28,1.43C61.27,107.12,61.01,107.15,60.8,107.15 M63.55,100.53c-0.53,1.46-0.99,2.74-1.46,4.09h2.89
		C64.51,103.24,64.07,101.99,63.55,100.53"/>
	<path class="st0" d="M153.1,106.86c0.03,0.18-0.03,0.26-0.15,0.29c-0.23,0-0.47,0.06-0.64-0.09c-0.06-0.03-0.06-0.15-0.09-0.23
		c-0.23-0.47-0.2-1.31-0.64-1.37c-1.02-0.18-2.07-0.06-3.12-0.06c-0.26,0-0.26,0.26-0.32,0.44c-0.12,0.35-0.23,0.7-0.38,1.02
		c-0.15,0.41-0.5,0.38-0.79,0.29c-0.32-0.12-0.09-0.38,0-0.55c0.82-2.28,1.66-4.52,2.48-6.8c0.09-0.23,0.15-0.47,0.5-0.5
		c0.32,0,0.47,0.18,0.55,0.41c0.85,2.34,1.72,4.64,2.57,6.98C153.07,106.74,153.1,106.8,153.1,106.86 M149.98,100.53
		c-0.5,1.37-0.9,2.51-1.31,3.65c-0.15,0.38,0,0.5,0.38,0.47c0.76-0.03,1.52,0,2.36,0C150.97,103.3,150.5,102.02,149.98,100.53"/>
	<path class="st0" d="M126.3,107.07c-0.67,0.29-1.02,0-1.11-0.61c-0.15-0.93-0.67-1.26-1.58-1.11c-0.2,0.03-0.41,0.03-0.58,0
		c-1.11-0.18-1.96,0.03-2.13,1.37c-0.09,0.58-0.55,0.41-1.02,0.35c0.93-2.51,1.84-4.99,2.74-7.47c0.09-0.23,0.2-0.38,0.5-0.38
		c0.32,0,0.44,0.2,0.53,0.47c0.61,1.69,1.23,3.36,1.84,5.05C125.75,105.55,126.01,106.31,126.3,107.07 M123.12,100.53
		c-0.29,0.82-0.53,1.4-0.7,2.01c-0.2,0.67-0.9,1.52-0.55,1.98c0.29,0.35,1.37,0.09,2.1,0.12c0.47,0.03,0.61-0.09,0.44-0.55
		C123.97,102.98,123.59,101.87,123.12,100.53"/>
	<path class="st0" d="M138.33,102.31c0,0.79,0.03,1.58,0,2.36c-0.06,1.49-1.17,2.51-2.71,2.51c-1.55,0-2.69-0.99-2.71-2.51
		c-0.06-1.63,0-3.27-0.03-4.9c0-0.32,0.03-0.53,0.44-0.53c0.44,0,0.41,0.23,0.41,0.53c0,1.63-0.03,3.27,0.03,4.9
		c0.03,1.11,0.82,1.75,1.87,1.75c1.05,0,1.78-0.7,1.87-1.78c0.03-0.44,0.03-0.9,0-1.34c-0.06-1.26,0.15-2.51-0.12-3.77
		c-0.06-0.26,0.15-0.44,0.29-0.38c0.23,0.12,0.7,0,0.67,0.53C138.3,100.56,138.36,101.43,138.33,102.31L138.33,102.31z"/>
	<path class="st0" d="M36.17,106.89c0.03,0.15,0,0.26-0.2,0.26c-0.29,0-0.67,0.09-0.7-0.26c-0.18-1.78-1.46-1.55-2.63-1.52
		c-0.18,0-0.35,0.03-0.5,0c-0.58-0.09-0.96,0.09-1.08,0.73c-0.03,0.2-0.2,0.41-0.23,0.61c-0.06,0.5-0.44,0.53-0.76,0.41
		c-0.38-0.15-0.09-0.44-0.03-0.64c0.82-2.25,1.63-4.5,2.45-6.71c0.09-0.23,0.12-0.5,0.47-0.5c0.29,0,0.44,0.12,0.55,0.41
		c0.85,2.36,1.72,4.7,2.57,7.03C36.11,106.77,36.14,106.8,36.17,106.89 M33.04,100.53c-0.47,1.34-0.88,2.51-1.31,3.65
		c-0.15,0.41,0,0.47,0.35,0.47c0.58-0.03,1.17-0.03,1.78,0c0.58,0.03,0.58-0.2,0.44-0.64C33.89,102.92,33.48,101.81,33.04,100.53"/>
	<path class="st0" d="M166,107.21c-0.96,0-1.69-0.18-2.34-0.67c-0.18-0.12-0.53-0.2-0.29-0.55c0.2-0.29,0.41-0.38,0.76-0.12
		c0.73,0.61,1.58,0.67,2.48,0.5c0.7-0.15,1.14-0.61,1.17-1.34c0-0.76-0.44-1.17-1.17-1.31c-0.61-0.12-1.23-0.2-1.81-0.38
		c-0.9-0.29-1.37-0.9-1.4-1.81c-0.03-0.9,0.44-1.69,1.23-2.01c1.05-0.41,2.1-0.38,3.09,0.18c0.2,0.12,0.64,0.18,0.38,0.58
		c-0.2,0.32-0.41,0.32-0.76,0.09c-0.61-0.41-1.28-0.53-2.01-0.29c-0.7,0.2-1.05,0.64-1.05,1.34c-0.03,0.7,0.41,1.08,1.05,1.26
		c0.5,0.12,0.99,0.2,1.49,0.29c1.23,0.26,1.84,0.93,1.84,2.04c0,1.05-0.64,1.84-1.81,2.1C166.5,107.18,166.15,107.18,166,107.21"/>
	<path class="st0" d="M39.55,107.21c-0.93-0.03-1.72-0.2-2.34-0.73c-0.15-0.12-0.44-0.23-0.18-0.53c0.2-0.2,0.35-0.41,0.67-0.12
		c0.7,0.58,1.52,0.67,2.39,0.53c0.85-0.15,1.31-0.67,1.28-1.4c-0.03-0.82-0.5-1.2-1.28-1.31c-0.61-0.09-1.23-0.18-1.81-0.38
		c-0.9-0.29-1.31-0.99-1.26-1.96c0.06-0.96,0.64-1.72,1.55-1.96c0.99-0.26,1.96-0.2,2.83,0.35c0.18,0.12,0.53,0.2,0.29,0.55
		c-0.18,0.26-0.38,0.35-0.7,0.12c-0.61-0.44-1.34-0.55-2.07-0.35c-0.64,0.18-0.99,0.61-1.02,1.28c-0.06,0.7,0.32,1.11,0.96,1.28
		c0.55,0.15,1.11,0.23,1.66,0.35c1.14,0.23,1.69,0.9,1.75,1.96c0.03,0.96-0.55,1.78-1.52,2.1
		C40.31,107.15,39.87,107.24,39.55,107.21"/>
	<path class="st0" d="M226.63,102.37c0,0.79,0.03,1.58,0,2.36c-0.09,1.52-1.17,2.48-2.74,2.48c-1.49,0-2.66-0.99-2.69-2.45
		c-0.06-1.66,0-3.33-0.03-4.99c0-0.35,0.09-0.5,0.47-0.5c0.41,0,0.38,0.23,0.38,0.5c0,1.52,0,3.04,0,4.55c0,1.31,0.7,2.1,1.87,2.13
		c1.14,0.03,1.87-0.7,1.9-1.98c0.06-1.52,0-3.04,0.03-4.55c0-0.26-0.12-0.73,0.29-0.76c0.47-0.03,0.53,0.35,0.53,0.76
		C226.66,100.73,226.66,101.55,226.63,102.37L226.63,102.37z"/>
	<path class="st0" d="M216.73,107.24c-0.82-0.03-1.58-0.23-2.22-0.73c-0.18-0.12-0.44-0.26-0.18-0.53c0.2-0.2,0.35-0.41,0.67-0.12
		c0.73,0.61,1.58,0.7,2.48,0.53c0.76-0.15,1.2-0.58,1.2-1.4c0-0.79-0.47-1.17-1.2-1.28c-0.64-0.09-1.28-0.15-1.9-0.38
		c-0.9-0.38-1.26-0.93-1.23-1.96c0.03-0.93,0.5-1.63,1.34-1.9c1.02-0.32,2.01-0.29,2.95,0.26c0.2,0.12,0.61,0.18,0.38,0.58
		c-0.2,0.32-0.44,0.32-0.76,0.09c-0.55-0.38-1.2-0.5-1.87-0.35c-0.7,0.15-1.17,0.53-1.23,1.31c-0.06,0.79,0.35,1.2,1.08,1.34
		c0.44,0.09,0.88,0.18,1.31,0.26c1.34,0.29,1.9,0.9,1.9,2.07c0,1.14-0.64,1.87-1.87,2.13C217.35,107.18,217.03,107.21,216.73,107.24
		"/>
	<path class="st0" d="M184.42,99.24c0.88-0.03,1.52,0.15,2.07,0.53c0.18,0.12,0.41,0.23,0.18,0.53c-0.18,0.2-0.32,0.35-0.61,0.12
		c-0.67-0.5-1.43-0.61-2.25-0.35c-0.64,0.2-0.93,0.67-0.93,1.34c0,0.64,0.32,1.02,0.9,1.17c0.61,0.18,1.28,0.23,1.9,0.38
		c0.9,0.2,1.46,0.85,1.55,1.78c0.09,0.85-0.35,1.75-1.11,2.1c-1.28,0.55-2.57,0.53-3.77-0.26c-0.18-0.12-0.61-0.2-0.29-0.61
		c0.23-0.29,0.41-0.32,0.76-0.06c0.73,0.58,1.61,0.67,2.48,0.47c0.7-0.18,1.14-0.61,1.11-1.37c0-0.76-0.44-1.17-1.2-1.28
		c-0.44-0.09-0.9-0.12-1.34-0.2c-1.26-0.23-1.87-0.99-1.81-2.16c0.06-1.14,0.88-1.96,2.04-2.07
		C184.25,99.24,184.42,99.24,184.42,99.24"/>
	<path class="st0" d="M244.76,99.21c0.64,0,1.23,0.12,1.75,0.5c0.18,0.12,0.61,0.18,0.32,0.58c-0.2,0.26-0.38,0.26-0.67,0.06
		c-0.64-0.44-1.34-0.53-2.1-0.32c-0.7,0.2-1.02,0.67-1.02,1.37c0,0.64,0.38,1.05,0.99,1.2c0.58,0.15,1.17,0.2,1.75,0.35
		c0.96,0.2,1.55,0.85,1.63,1.78c0.09,0.96-0.38,1.81-1.28,2.16c-1.23,0.5-2.42,0.41-3.56-0.29c-0.2-0.12-0.64-0.23-0.38-0.67
		c0.26-0.41,0.5-0.26,0.82-0.03c0.76,0.58,1.63,0.61,2.51,0.38c0.67-0.18,1.05-0.64,1.05-1.34c0-0.73-0.44-1.14-1.11-1.28
		c-0.47-0.09-0.93-0.15-1.43-0.23c-1.17-0.23-1.81-0.93-1.84-1.98c-0.03-1.11,0.67-1.96,1.84-2.19
		C244.26,99.24,244.52,99.24,244.76,99.21"/>
	<path class="st0" d="M68.45,103.21c0.03,0.55,0.06,1.08,0.12,1.58c0.12,0.93,0.58,1.49,1.46,1.61c0.82,0.12,1.58,0.06,1.84-0.96
		c0.06-0.18,0.2-0.32,0.35-0.47c0.2-0.2,0.5-0.18,0.7-0.09c0.29,0.12,0.09,0.41,0.03,0.58c-0.35,0.96-1.26,1.9-2.86,1.72
		c-1.26-0.12-2.28-1.02-2.36-2.25c-0.09-1.02-0.15-2.07-0.15-3.12c-0.03-1.2,1.02-2.36,2.25-2.6c1.34-0.26,2.66,0.44,3.09,1.63
		c0.09,0.2,0.32,0.53-0.03,0.64c-0.26,0.09-0.61,0.12-0.76-0.29c-0.26-0.67-0.7-1.14-1.43-1.26c-0.99-0.18-1.96,0.47-2.1,1.49
		C68.48,102.07,68.48,102.66,68.45,103.21"/>
	<path class="st0" d="M50.94,103.27c0-0.55-0.03-1.14,0-1.69c0.09-1.26,0.96-2.13,2.19-2.31c1.37-0.2,2.57,0.44,3.01,1.63
		c0.09,0.2,0.35,0.53,0,0.67c-0.29,0.12-0.61,0.09-0.82-0.35c-0.5-1.05-1.26-1.4-2.25-1.14c-0.79,0.23-1.23,0.76-1.31,1.58
		c-0.09,1.05-0.09,2.07,0,3.12c0.09,0.88,0.67,1.52,1.52,1.69c0.55,0.12,1.69-0.47,1.98-1.05c0.06-0.12,0.12-0.26,0.18-0.38
		c0.18-0.29,0.47-0.2,0.67-0.15c0.32,0.09,0.09,0.32,0.03,0.5c-0.35,1.2-1.49,1.93-2.8,1.84c-1.31-0.09-2.34-0.99-2.45-2.25
		C50.88,104.38,50.94,103.83,50.94,103.27L50.94,103.27"/>
	<path class="st0" d="M129.25,103.68c0,0.99,0,1.98,0,2.95c0,0.26,0,0.5-0.38,0.5c-0.38,0-0.47-0.18-0.47-0.53c0-1.78,0-3.56,0-5.34
		c0-1.26,0-1.26-1.2-1.26c-0.2,0-0.41,0-0.58,0c-0.29,0.03-0.47-0.06-0.47-0.41c0-0.32,0.15-0.38,0.41-0.38c1.52,0,3.04,0,4.58,0
		c0.26,0,0.41,0.06,0.41,0.38c0,0.29-0.12,0.41-0.38,0.41c-0.41,0-0.79,0.03-1.2,0c-0.61-0.09-0.76,0.18-0.73,0.76
		C129.28,101.78,129.25,102.75,129.25,103.68L129.25,103.68z"/>
	<path class="st0" d="M171.84,103.62c0-0.99-0.03-1.98,0-2.95c0.03-0.47-0.12-0.67-0.61-0.61c-0.38,0.03-0.79,0-1.17,0
		c-0.26,0-0.5,0-0.53-0.38c0-0.35,0.18-0.41,0.47-0.41c1.49,0,2.98,0,4.47,0c0.26,0,0.41,0.06,0.44,0.38c0,0.35-0.15,0.41-0.47,0.44
		c-0.58,0.03-1.43-0.26-1.66,0.12c-0.29,0.47-0.12,1.23-0.12,1.87c0,1.49,0,2.98,0,4.47c0,0.32,0.03,0.61-0.47,0.61
		c-0.47,0-0.38-0.29-0.38-0.58C171.84,105.61,171.84,104.61,171.84,103.62"/>
	<path class="st0" d="M250.62,103.62c0-1.02-0.03-2.04,0-3.04c0-0.41-0.12-0.55-0.53-0.53c-0.44,0.03-0.9,0-1.34,0
		c-0.29,0-0.41-0.12-0.41-0.41c0-0.29,0.12-0.38,0.41-0.38c1.52,0,3.04,0,4.58,0c0.29,0,0.38,0.15,0.38,0.41
		c0,0.23-0.09,0.38-0.35,0.38c-0.06,0-0.12,0-0.18,0c-0.55,0.03-1.31-0.26-1.61,0.12c-0.35,0.44-0.12,1.2-0.12,1.81
		c-0.03,1.49,0,2.98,0,4.5c0,0.29,0.15,0.7-0.44,0.7c-0.61,0-0.38-0.44-0.41-0.73C250.59,105.49,250.62,104.56,250.62,103.62"/>
	<path class="st0" d="M205.73,103.15c0-1.11,0-2.19,0-3.3c0-0.32-0.03-0.61,0.47-0.58c0.47,0.03,0.38,0.29,0.38,0.58
		c0,1.93,0.03,3.82-0.03,5.75c-0.03,0.7,0.2,0.85,0.85,0.82c0.9-0.06,1.81,0,2.71,0c0.26,0,0.5,0,0.5,0.38c0,0.35-0.2,0.41-0.5,0.41
		c-1.28,0-2.6-0.03-3.88,0c-0.44,0-0.5-0.18-0.5-0.55C205.76,105.46,205.73,104.29,205.73,103.15"/>
	<path class="st0" d="M155.29,102.8c0,1.02,0.03,2.01,0,3.04c0,0.41,0.12,0.53,0.53,0.53c0.99-0.03,1.96,0,2.95,0
		c0.26,0,0.58-0.09,0.55,0.38c0,0.44-0.29,0.41-0.55,0.41c-1.23,0-2.48-0.03-3.71,0c-0.5,0-0.61-0.18-0.61-0.64
		c0.03-2.22,0-4.44,0-6.68c0-0.35,0.03-0.58,0.5-0.58c0.47,0,0.35,0.35,0.35,0.58C155.32,100.85,155.29,101.84,155.29,102.8"/>
	<path class="st0" d="M74.96,103.18c0-1.11,0-2.19,0-3.3c0-0.32-0.06-0.61,0.44-0.61c0.44,0.03,0.41,0.29,0.41,0.58
		c0,2.25,0,4.5,0,6.74c0,0.29,0,0.55-0.41,0.55c-0.44,0.03-0.44-0.23-0.44-0.53C74.96,105.49,74.96,104.32,74.96,103.18"/>
	<path class="st0" d="M160.81,103.15c0-1.11,0-2.19,0-3.3c0-0.29-0.06-0.55,0.41-0.58c0.44,0,0.44,0.26,0.44,0.55
		c0,2.25,0,4.52,0,6.77c0,0.29,0.03,0.55-0.41,0.58c-0.44,0-0.44-0.26-0.44-0.55C160.81,105.46,160.81,104.29,160.81,103.15"/>
	<path class="st0" d="M59.05,103.15c0,1.17,0,2.31,0,3.47c0,0.29,0,0.55-0.44,0.55c-0.44,0-0.41-0.26-0.41-0.55
		c0-2.28,0-4.55,0-6.83c0-0.26-0.03-0.5,0.38-0.5c0.38,0,0.47,0.18,0.47,0.5C59.02,100.91,59.05,102.02,59.05,103.15"/>
	<path class="st0" d="M79.86,98.57c0.7-0.7,0.58-1.93,2.04-1.63C81.21,97.46,81.21,98.57,79.86,98.57"/>
</g>
</svg>
